INDEX VERSION 1.4+C:\Users\ramd\eclipse-workspace2\.metadata\.plugins\org.eclipse.wst.jsdt.core\indexes
1075258316.index
644754121.index
2247089471.index
1941099704.index
3909217750.index
376648790.index
